\relax 
\catcode `"\active 
\select@language{english}
\@writefile{toc}{\select@language{english}}
\@writefile{lof}{\select@language{english}}
\@writefile{lot}{\select@language{english}}
\@writefile{toc}{\contentsline {section}{List of Figures}{I}}
\@writefile{toc}{\contentsline {section}{\numberline {1}Introduction}{1}}
\citation{buch}
\citation{buch}
\citation{buch}
\citation{buch}
\@writefile{toc}{\contentsline {section}{\numberline {2}General HJM-Framework and Set-Up}{3}}
\@writefile{toc}{\contentsline {subsection}{\numberline {2.1}The Multiple Curve Framework: Some Notation}{3}}
\newlabel{notationszeug}{{2.1}{3}}
\@writefile{lof}{\contentsline {figure}{\numberline {1}{\ignorespaces  Illustration of different tenor structures}}{3}}
\newlabel{tenorstrucutres}{{1}{3}}
\@writefile{toc}{\contentsline {subsubsection}{\numberline {2.1.1}The discount curve}{4}}
\@writefile{toc}{\contentsline {subsubsection}{\numberline {2.1.2}Risk-Neutral and Forward Measure}{4}}
\newlabel{measurechangedens}{{5}{4}}
\citation{buch}
\newlabel{classicalbpf}{{8}{5}}
\@writefile{toc}{\contentsline {subsubsection}{\numberline {2.1.3}The LIBOR rate}{5}}
\newlabel{precrisislibor1}{{9}{5}}
\citation{buch}
\citation{Dr}
\newlabel{deflibor}{{2.3}{6}}
\newlabel{precrisislibor2}{{11}{6}}
\newlabel{deffictbonds}{{12}{6}}
\citation{spreadgrafik}
\citation{buch}
\@writefile{toc}{\contentsline {subsubsection}{\numberline {2.1.4}The OIS-LIBOR basis spread}{7}}
\@writefile{lof}{\contentsline {figure}{\numberline {2}{\ignorespaces  1-, 3- and 6-month Libor-Ois spread from 2006 until 2009}}{7}}
\newlabel{liboroisspread}{{2}{7}}
\newlabel{spreaddef}{{15}{8}}
\newlabel{bondrelation}{{17}{8}}
\@writefile{toc}{\contentsline {subsection}{\numberline {2.2}Arbitrage-Free Modeling of Spread and OIS Rate}{8}}
\newlabel{generalarbfree}{{2.2}{8}}
\newlabel{deffg}{{18}{8}}
\newlabel{asigmadef}{{20}{9}}
\@writefile{toc}{\contentsline {subsubsection}{\numberline {2.2.1}Arbitrage-Free OIS rate - First drift condition}{9}}
\newlabel{POISdynamics}{{22}{9}}
\newlabel{proofdynamics}{{23}{10}}
\newlabel{1stdc}{{24}{10}}
\newlabel{explbondhilfe}{{25}{10}}
\newlabel{POISbondexpl}{{28}{11}}
\newlabel{dynPA}{{29}{11}}
\newlabel{explicitbond}{{30}{11}}
\@writefile{toc}{\contentsline {subsubsection}{\numberline {2.2.2}Arbitrage-Free spread rate - Second drift condition}{11}}
\newlabel{sec2nddc}{{2.2.2}{11}}
\newlabel{noarbitragelemma}{{2.11}{11}}
\newlabel{2nddc}{{32}{12}}
\citation{buch}
\citation{buch}
\citation{buch}
\citation{buch}
\newlabel{explicitquotient}{{35}{13}}
\citation{masterarbeit}
\newlabel{explicitmu}{{38}{14}}
\citation{tscd}
\citation{tswp}
\citation{tswp}
\@writefile{toc}{\contentsline {section}{\numberline {3}A Trolle-Schwartz Stochastic Spread Model and its Simulation}{15}}
\newlabel{tssimulation}{{3}{15}}
\@writefile{toc}{\contentsline {subsection}{\numberline {3.1}The specific model set-up inspired by Trolle-Schwartz}{15}}
\@writefile{toc}{\contentsline {subsubsection}{\numberline {3.1.1}The Forward Rate Dynamics of Spread and OIS}{15}}
\newlabel{tsspread}{{39}{15}}
\newlabel{tsois}{{40}{15}}
\@writefile{toc}{\contentsline {subsubsection}{\numberline {3.1.2}Stochastic Volatility Processes and Correlation}{16}}
\newlabel{corrmatrix}{{3.1.2}{16}}
\newlabel{optionc}{{42}{16}}
\citation{tswp}
\citation{tswp}
\citation{tswp}
\citation{tswp}
\citation{tswp}
\@writefile{toc}{\contentsline {subsection}{\numberline {3.2}State Variables and Coefficients for Simulating the Zero Coupon Bonds}{18}}
\newlabel{ZCBdynamics}{{3.2}{18}}
\@writefile{toc}{\contentsline {subsubsection}{\numberline {3.2.1}Explicit Deterministic Volatility Factors}{18}}
\newlabel{sigmabs1}{{50}{18}}
\newlabel{sigmaois1}{{51}{18}}
\@writefile{toc}{\contentsline {subsubsection}{\numberline {3.2.2}OIS Zero Coupon Bond Dynamics}{18}}
\newlabel{ZCBdynamics}{{3.2.2}{18}}
\newlabel{finalsvois}{{3.3}{19}}
\newlabel{OIScoeff}{{53}{19}}
\newlabel{POISbondexpl2}{{56}{20}}
\newlabel{sigmaois3}{{57}{20}}
\newlabel{OIScalul1}{{58}{20}}
\newlabel{OIScalul2}{{59}{21}}
\newlabel{OIScalul3}{{60}{21}}
\newlabel{OIScalul4}{{61}{21}}
\newlabel{OISstatevar}{{63}{21}}
\newlabel{sigmaois2}{{3.4}{22}}
\newlabel{newfirdc}{{65}{22}}
\@writefile{toc}{\contentsline {subsubsection}{\numberline {3.2.3}Spread Zero Coupon Bond Dynamics}{22}}
\newlabel{teleprod}{{66}{22}}
\@writefile{lof}{\contentsline {figure}{\numberline {3}{\ignorespaces  Illustration of quotient structure}}{22}}
\newlabel{quotientstructure1}{{3}{22}}
\newlabel{firstquotient}{{68}{23}}
\newlabel{3}{{71}{23}}
\@writefile{lof}{\contentsline {figure}{\numberline {4}{\ignorespaces  Illustration of renamed quotient structure}}{24}}
\newlabel{quotientstructure2}{{4}{24}}
\newlabel{illusremark}{{72}{24}}
\newlabel{newnotation}{{73}{24}}
\newlabel{teleprod2}{{74}{24}}
\newlabel{statevarlemmabs}{{3.6}{24}}
\newlabel{uniquequostatevarform}{{75}{25}}
\newlabel{spreadcoeff}{{76}{25}}
\newlabel{trafoexp}{{78}{25}}
\newlabel{statevarstart}{{79}{25}}
\newlabel{statevarhelp1}{{80}{26}}
\newlabel{statevarhelp2}{{81}{26}}
\newlabel{statevarhelp3}{{82}{26}}
\newlabel{statevarhelp4}{{83}{27}}
\newlabel{statevaroisbefore}{{84}{28}}
\newlabel{nonuniquequotsv}{{85}{28}}
\newlabel{finalsvbs}{{3.7}{28}}
\newlabel{bsstatevarform}{{86}{28}}
\newlabel{bscoeff}{{87}{29}}
\newlabel{sigmabs2}{{3.8}{29}}
\newlabel{newsecdc}{{91}{29}}
\citation{tswp}
\@writefile{toc}{\contentsline {section}{\numberline {4}Semi-Analytical Option Pricing Within the Stochastic Spread Model}{31}}
\@writefile{toc}{\contentsline {subsection}{\numberline {4.1}European Put and Call Options}{31}}
\@writefile{toc}{\contentsline {subsubsection}{\numberline {4.1.1}Closed Formula without Approximation}{31}}
\newlabel{trafoput}{{96}{31}}
\newlabel{trafoeta}{{4.3}{32}}
\newlabel{trafoexpl}{{97}{32}}
\newlabel{ODE}{{98}{32}}
\newlabel{martcond}{{99}{32}}
\newlabel{startingvalue}{{100}{32}}
\newlabel{expliciteta}{{102}{33}}
\newlabel{semimarts}{{103}{33}}
\newlabel{monster}{{104}{34}}
\newlabel{optioncf}{{105}{34}}
\newlabel{Gtransform}{{106}{34}}
\newlabel{optionhf}{{107}{34}}
\citation{Duffiepan}
\newlabel{putcf}{{108}{35}}
\newlabel{callcf}{{109}{35}}
\newlabel{ODEperiods}{{110}{36}}
\@writefile{toc}{\contentsline {subsubsection}{\numberline {4.1.2}Approximation Approaches}{38}}
\newlabel{ODEnew}{{115}{38}}
\newlabel{ODEnewnew}{{117}{39}}
\newlabel{expliciteta2}{{118}{39}}
\@writefile{toc}{\contentsline {subsection}{\numberline {4.2}Caps and Floors}{39}}
\citation{buch}
\citation{buch}
\newlabel{capletprice}{{123}{40}}
\@writefile{toc}{\contentsline {subsection}{\numberline {4.3}Swaptions}{41}}
\@writefile{toc}{\contentsline {section}{\numberline {5}Verification and Conclusion}{43}}
\@writefile{lof}{\contentsline {figure}{\numberline {5}{\ignorespaces  MC and Closed Formula Prices w.r.t. strikes}}{43}}
\newlabel{plotstrikes1}{{5}{43}}
\@writefile{lof}{\contentsline {figure}{\numberline {6}{\ignorespaces  MC and Closed Formula Prices w.r.t. strikes - Zoom}}{44}}
\newlabel{plotstrikes2}{{6}{44}}
\@writefile{toc}{\contentsline {section}{\numberline {6}Appendix A}{45}}
\newlabel{appendixhelp}{{125}{45}}
\bibcite{buch}{1}
\bibcite{Dr}{2}
\bibcite{tswp}{3}
\bibcite{tscd}{4}
\bibcite{masterarbeit}{5}
\bibcite{spreadgrafik}{6}
\bibcite{Duffiepan}{7}
\@writefile{toc}{\contentsline {section}{References}{49}}
