\select@language {english}
\contentsline {figure}{\numberline {1}{\ignorespaces Illustration of different tenor structures}}{3}
\contentsline {figure}{\numberline {2}{\ignorespaces 1-, 3- and 6-month Libor-Ois spread from 2006 until 2009}}{7}
\contentsline {figure}{\numberline {3}{\ignorespaces Illustration of quotient structure}}{22}
\contentsline {figure}{\numberline {4}{\ignorespaces Illustration of renamed quotient structure}}{24}
\contentsline {figure}{\numberline {5}{\ignorespaces MC and Closed Formula Prices w.r.t. strikes}}{43}
\contentsline {figure}{\numberline {6}{\ignorespaces MC and Closed Formula Prices w.r.t. strikes - Zoom}}{44}
