\relax 
\catcode `"\active 
\citation{buch}
\select@language{english}
\@writefile{toc}{\select@language{english}}
\@writefile{lof}{\select@language{english}}
\@writefile{lot}{\select@language{english}}
\citation{spreadgrafik}
\citation{fuji}
\citation{buch}
\citation{buch}
\citation{buch}
\citation{tswp}
\citation{tscd}
\citation{buch}
\citation{buch}
\citation{buch}
\@writefile{toc}{\contentsline {section}{\numberline {1}Introduction}{1}}
\@writefile{toc}{\contentsline {section}{\numberline {2}General Stochastic Spread HJM-type Model Set-Up}{1}}
\newlabel{generalstuff}{{2}{1}}
\citation{buch}
\@writefile{toc}{\contentsline {subsection}{\numberline {2.1}The Multiple Curve Framework: Our Notation}{2}}
\newlabel{notationszeug}{{2.1}{2}}
\@writefile{lof}{\contentsline {figure}{\numberline {1}{\ignorespaces  Illustration of different tenor structures}}{2}}
\newlabel{tenorstrucutres}{{1}{2}}
\@writefile{toc}{\contentsline {subsubsection}{\numberline {2.1.1}The discount curve model}{2}}
\citation{buch}
\@writefile{toc}{\contentsline {subsubsection}{\numberline {2.1.2}Risk-Neutral and Forward Measure}{3}}
\newlabel{measurechangedens}{{5}{3}}
\newlabel{classicalbpf}{{7}{3}}
\@writefile{toc}{\contentsline {subsubsection}{\numberline {2.1.3}The spread rate (e.g.\ LIBOR rate)}{3}}
\citation{Dr}
\newlabel{deflibor}{{2.1}{4}}
\newlabel{deffictbonds}{{9}{4}}
\@writefile{toc}{\contentsline {subsubsection}{\numberline {2.1.4}The OIS-LIBOR basis spread}{4}}
\newlabel{spreaddef}{{12}{4}}
\newlabel{bondrelation}{{14}{5}}
\@writefile{toc}{\contentsline {subsection}{\numberline {2.2}Arbitrage-free joint modeling of spread and OIS rate}{5}}
\newlabel{generalarbfree}{{2.2}{5}}
\newlabel{deffg}{{15}{5}}
\newlabel{asigmadef}{{17}{5}}
\@writefile{toc}{\contentsline {subsubsection}{\numberline {2.2.1}Arbitrage-Free OIS rate - First drift condition}{6}}
\newlabel{POISdynamics}{{19}{6}}
\newlabel{proofdynamics}{{20}{6}}
\newlabel{1stdc}{{21}{6}}
\newlabel{explbondhilfe}{{22}{7}}
\newlabel{POISbondexpl}{{25}{7}}
\newlabel{dynPA}{{26}{7}}
\newlabel{explicitbond}{{27}{7}}
\@writefile{toc}{\contentsline {subsubsection}{\numberline {2.2.2}Arbitrage-Free spread rate - Second drift condition}{7}}
\newlabel{sec2nddc}{{2.2.2}{7}}
\citation{buch}
\newlabel{noarbitragelemma}{{2.7}{8}}
\newlabel{2nddc}{{29}{8}}
\newlabel{explicitquotient}{{30}{8}}
\citation{masterarbeit}
\citation{tscd}
\newlabel{explicitmu}{{33}{9}}
\@writefile{toc}{\contentsline {section}{\numberline {3}A Trolle-Schwartz-type stochastic spread model with simulation scheme}{9}}
\newlabel{tssimulation}{{3}{9}}
\@writefile{toc}{\contentsline {subsection}{\numberline {3.1}The specific model set-up employing the Trolle--Schwartz model}{9}}
\@writefile{toc}{\contentsline {subsubsection}{\numberline {3.1.1}The Forward Rate Dynamics of Spread and OIS}{9}}
\citation{tswp}
\citation{tswp}
\newlabel{tsspread}{{34}{10}}
\newlabel{tsois}{{35}{10}}
\@writefile{toc}{\contentsline {subsubsection}{\numberline {3.1.2}Stochastic Volatility Processes and Correlation}{10}}
\citation{tswp}
\citation{tswp}
\citation{tswp}
\@writefile{toc}{\contentsline {subsection}{\numberline {3.2}State Variables and Coefficients for simulating the dynamics of zero coupon bonds}{11}}
\@writefile{toc}{\contentsline {subsubsection}{\numberline {3.2.1}Explicit Deterministic Volatility Factors}{11}}
\newlabel{sigmabs1}{{39}{11}}
\citation{tswp}
\newlabel{sigmaois1}{{40}{12}}
\@writefile{toc}{\contentsline {subsubsection}{\numberline {3.2.2}Simulation scheme for the stochastic spread model}{12}}
\newlabel{ZCBdynamics}{{3.2.2}{12}}
\newlabel{finalsvois}{{3.1}{12}}
\newlabel{newfirdc}{{45}{13}}
\newlabel{teleprod}{{46}{13}}
\@writefile{lof}{\contentsline {figure}{\numberline {2}{\ignorespaces  Illustration of quotient structure}}{14}}
\newlabel{quotientstructure1}{{2}{14}}
\newlabel{firstquotient}{{48}{14}}
\newlabel{3}{{51}{15}}
\newlabel{illusremark}{{52}{15}}
\newlabel{newnotation}{{53}{15}}
\newlabel{teleprod2}{{54}{15}}
\@writefile{lof}{\contentsline {figure}{\numberline {3}{\ignorespaces  Illustration of renamed quotient structure}}{16}}
\newlabel{quotientstructure2}{{3}{16}}
\newlabel{statevarlemmabs}{{3.3}{16}}
\newlabel{uniquequostatevarform}{{55}{16}}
\newlabel{spreadcoeff}{{56}{16}}
\newlabel{trafoexp}{{58}{16}}
\newlabel{statevarstart}{{59}{17}}
\newlabel{statevarhelp1}{{60}{17}}
\newlabel{statevarhelp2}{{61}{17}}
\newlabel{statevarhelp3}{{62}{18}}
\newlabel{statevarhelp4}{{63}{18}}
\newlabel{statevaroisbefore}{{64}{19}}
\newlabel{nonuniquequotsv}{{65}{19}}
\newlabel{finalsvbs}{{3.4}{19}}
\newlabel{bsstatevarform}{{66}{19}}
\newlabel{bscoeff}{{67}{20}}
\newlabel{sigmabs2}{{3.5}{20}}
\newlabel{newsecdc}{{71}{20}}
\citation{tswp}
\@writefile{toc}{\contentsline {section}{\numberline {4}Semi-Analytical Option Pricing of European Put and Call Bond Options}{22}}
\newlabel{semianalyticpricing}{{4}{22}}
\@writefile{toc}{\contentsline {subsection}{\numberline {4.1}Fourier Transformation}{22}}
\newlabel{trafoput}{{76}{22}}
\newlabel{trafoexpl}{{77}{23}}
\newlabel{martcond}{{79}{23}}
\newlabel{startingvalue}{{80}{23}}
\newlabel{semimarts}{{83}{24}}
\newlabel{monster}{{84}{25}}
\newlabel{finalODE}{{4.4}{25}}
\newlabel{ODEperiods}{{85}{26}}
\newlabel{driftfreezing}{{88}{27}}
\newlabel{ODEnew}{{89}{28}}
\@writefile{toc}{\contentsline {subsection}{\numberline {4.2}Closed Formula for Put and Call Option}{28}}
\newlabel{optioncf}{{90}{28}}
\newlabel{Gtransform}{{91}{28}}
\newlabel{optionhf}{{92}{28}}
\citation{Duffiepan}
\newlabel{putcf}{{93}{29}}
\newlabel{callcf}{{94}{29}}
\@writefile{toc}{\contentsline {section}{\numberline {5}Verification and Conclusion}{29}}
\newlabel{verification}{{5}{29}}
\@writefile{lof}{\contentsline {figure}{\numberline {4}{\ignorespaces  MC and Closed Formula Prices w.r.t. strikes}}{30}}
\newlabel{plotstrikes1}{{4}{30}}
\@writefile{lof}{\contentsline {figure}{\numberline {5}{\ignorespaces  MC and Closed Formula Prices w.r.t. strikes - Zoom}}{31}}
\newlabel{plotstrikes2}{{5}{31}}
\bibcite{buch}{1}
\bibcite{Dr}{2}
\bibcite{tswp}{3}
\bibcite{tscd}{4}
\bibcite{masterarbeit}{5}
\bibcite{spreadgrafik}{6}
\bibcite{Duffiepan}{7}
\bibcite{fuji}{8}
\@writefile{toc}{\contentsline {section}{References}{32}}
